0 test/obj1__20.png
1 test/obj1__15.png
2 test/obj1__140.png
3 test/obj1__125.png
4 test/obj1__185.png
0 test/obj1__200.png
0 test/obj1__25.png
2 test/obj1__150.png
2 test/obj1__320.png
2 test/obj1__305.png
3 test/obj1__110.png
4 test/obj1__95.png
2 test/obj1__70.png
1 test/obj1__180.png
1 test/obj1__5.png
1 test/obj1__160.png
2 test/obj1__300.png
0 test/obj1__230.png
2 test/obj1__310.png
0 test/obj1__50.png
2 test/obj1__115.png
2 test/obj1__130.png
4 test/obj1__280.png
1 test/obj1__165.png
4 test/obj1__90.png
0 test/obj1__40.png
0 test/obj1__225.png
2 test/obj1__65.png
4 test/obj1__100.png
0 test/obj1__205.png
4 test/obj1__275.png
1 test/obj1__355.png
1 test/obj1__345.png
3 test/obj1__260.png
0 test/obj1__35.png
2 test/obj1__155.png
4 test/obj1__85.png
1 test/obj1__170.png
1 test/obj1__195.png
2 test/obj1__325.png
4 test/obj1__265.png
0 test/obj1__55.png
4 test/obj1__270.png
1 test/obj1__10.png
3 test/obj1__105.png
3 test/obj1__75.png
0 test/obj1__45.png
2 test/obj1__245.png
1 test/obj1__340.png
2 test/obj1__335.png
3 test/obj1__255.png
2 test/obj1__240.png
2 test/obj1__315.png
1 test/obj1__175.png
0 test/obj1__30.png
0 test/obj1__220.png
3 test/obj1__285.png
0 test/obj1__60.png
0 test/obj1__210.png
3 test/obj1__250.png
2 test/obj1__120.png
0 test/obj1__215.png
1 test/obj1__190.png
2 test/obj1__330.png
2 test/obj1__235.png
3 test/obj1__290.png
2 test/obj1__135.png
1 test/obj1__350.png
2 test/obj1__145.png
1 test/obj1__0.png
3 test/obj1__80.png
3 test/obj1__295.png
