1 coil-100/obj4__240.png
1 coil-100/obj81__50.png
1 coil-100/obj81__355.png
1 coil-100/obj75__35.png
1 coil-100/obj81__310.png
1 coil-100/obj81__125.png
1 coil-100/obj81__115.png
1 coil-100/obj81__270.png
1 coil-100/obj81__320.png
1 coil-100/obj81__215.png
1 coil-100/obj81__180.png
1 coil-100/obj81__35.png
1 coil-100/obj81__130.png
1 coil-100/obj81__135.png
1 coil-100/obj81__70.png
1 coil-100/obj81__315.png
1 coil-100/obj81__75.png
1 coil-100/obj81__325.png
1 coil-100/obj81__200.png
1 coil-100/obj81__240.png
1 coil-100/obj81__245.png
1 coil-100/obj81__25.png
1 coil-100/obj81__340.png
1 coil-100/obj81__140.png
1 coil-100/obj20__150.png
1 coil-100/obj81__45.png
1 coil-100/obj81__155.png
1 coil-100/obj75__45.png
1 coil-100/obj81__30.png
1 coil-100/obj81__295.png
1 coil-100/obj81__255.png
1 coil-100/obj81__90.png
1 coil-100/obj81__330.png
1 coil-100/obj81__350.png
1 coil-100/obj81__235.png
1 coil-100/obj81__275.png
1 coil-100/obj81__205.png
1 coil-100/obj81__345.png
1 coil-100/obj81__165.png
1 coil-100/obj81__175.png
1 coil-100/obj81__85.png
1 coil-100/obj20__315.png
1 coil-100/obj20__135.png
1 coil-100/obj20__140.png
1 coil-100/obj81__220.png
1 coil-100/obj81__305.png
1 coil-100/obj81__100.png
1 coil-100/obj20__145.png
1 coil-100/obj81__110.png
1 coil-100/obj81__225.png
1 coil-100/obj81__0.png
1 coil-100/obj81__55.png
1 coil-100/obj81__20.png
1 coil-100/obj75__40.png
1 coil-100/obj81__120.png
1 coil-100/obj81__10.png
1 coil-100/obj20__325.png
1 coil-100/obj20__320.png
1 coil-100/obj81__195.png
1 coil-100/obj75__125.png
1 coil-100/obj81__230.png
1 coil-100/obj81__145.png
1 coil-100/obj81__290.png
1 coil-100/obj81__105.png
1 coil-100/obj81__185.png
1 coil-100/obj81__5.png
1 coil-100/obj20__310.png
1 coil-100/obj81__40.png
1 coil-100/obj81__160.png
1 coil-100/obj81__65.png
1 coil-100/obj81__210.png
1 coil-100/obj81__150.png
1 coil-100/obj81__190.png
1 coil-100/obj81__250.png
1 coil-100/obj75__120.png
1 coil-100/obj81__265.png
1 coil-100/obj81__285.png
1 coil-100/obj81__15.png
1 coil-100/obj81__335.png
1 coil-100/obj81__60.png
1 coil-100/obj81__260.png
1 coil-100/obj75__100.png
1 coil-100/obj81__80.png
1 coil-100/obj81__95.png
1 coil-100/obj81__170.png
