76 coil-100/obj4__345.png
76 coil-100/obj19__275.png
76 coil-100/obj19__75.png
76 coil-100/obj23__275.png
76 coil-100/obj23__85.png
76 coil-100/obj19__270.png
76 coil-100/obj19__285.png
76 coil-100/obj19__100.png
76 coil-100/obj23__90.png
76 coil-100/obj19__95.png
76 coil-100/obj19__85.png
76 coil-100/obj23__270.png
76 coil-100/obj19__280.png
76 coil-100/obj19__250.png
76 coil-100/obj23__280.png
76 coil-100/obj19__80.png
76 coil-100/obj23__285.png
76 coil-100/obj19__290.png
76 coil-100/obj19__105.png
76 coil-100/obj23__265.png
76 coil-100/obj19__265.png
76 coil-100/obj23__95.png
76 coil-100/obj19__255.png
76 coil-100/obj19__90.png
76 coil-100/obj23__260.png
76 coil-100/obj19__260.png
