53 coil-100/obj92__190.png
53 coil-100/obj96__50.png
53 coil-100/obj92__260.png
53 coil-100/obj92__55.png
53 coil-100/obj92__235.png
53 coil-100/obj96__210.png
53 coil-100/obj92__295.png
53 coil-100/obj96__150.png
53 coil-100/obj96__120.png
53 coil-100/obj61__250.png
53 coil-100/obj92__30.png
53 coil-100/obj96__195.png
53 coil-100/obj92__230.png
53 coil-100/obj92__240.png
53 coil-100/obj68__85.png
53 coil-100/obj96__130.png
53 coil-100/obj21__235.png
53 coil-100/obj96__215.png
53 coil-100/obj96__10.png
53 coil-100/obj13__55.png
53 coil-100/obj37__35.png
53 coil-100/obj96__165.png
53 coil-100/obj96__5.png
53 coil-100/obj67__60.png
53 coil-100/obj37__165.png
53 coil-100/obj96__230.png
53 coil-100/obj92__290.png
53 coil-100/obj96__20.png
53 coil-100/obj96__315.png
53 coil-100/obj37__30.png
53 coil-100/obj61__275.png
53 coil-100/obj96__345.png
53 coil-100/obj92__60.png
53 coil-100/obj96__45.png
53 coil-100/obj61__265.png
53 coil-100/obj61__300.png
53 coil-100/obj96__35.png
53 coil-100/obj96__30.png
53 coil-100/obj61__50.png
53 coil-100/obj92__75.png
53 coil-100/obj13__50.png
53 coil-100/obj96__180.png
53 coil-100/obj96__325.png
53 coil-100/obj65__80.png
53 coil-100/obj92__35.png
53 coil-100/obj39__270.png
53 coil-100/obj92__50.png
53 coil-100/obj61__35.png
53 coil-100/obj92__255.png
53 coil-100/obj92__85.png
53 coil-100/obj96__350.png
53 coil-100/obj96__125.png
53 coil-100/obj67__55.png
53 coil-100/obj96__185.png
53 coil-100/obj96__330.png
53 coil-100/obj61__245.png
53 coil-100/obj57__85.png
53 coil-100/obj96__305.png
53 coil-100/obj96__220.png
53 coil-100/obj92__15.png
53 coil-100/obj92__275.png
53 coil-100/obj61__40.png
53 coil-100/obj61__225.png
53 coil-100/obj37__155.png
53 coil-100/obj92__65.png
53 coil-100/obj92__315.png
53 coil-100/obj92__250.png
53 coil-100/obj96__55.png
53 coil-100/obj92__220.png
53 coil-100/obj92__310.png
53 coil-100/obj92__335.png
53 coil-100/obj92__40.png
53 coil-100/obj92__330.png
53 coil-100/obj37__210.png
53 coil-100/obj96__140.png
53 coil-100/obj51__95.png
53 coil-100/obj92__280.png
53 coil-100/obj92__270.png
53 coil-100/obj92__355.png
53 coil-100/obj96__135.png
53 coil-100/obj92__320.png
53 coil-100/obj92__95.png
53 coil-100/obj92__245.png
53 coil-100/obj57__80.png
53 coil-100/obj61__235.png
53 coil-100/obj96__355.png
53 coil-100/obj68__315.png
53 coil-100/obj61__45.png
53 coil-100/obj92__90.png
53 coil-100/obj61__260.png
53 coil-100/obj61__25.png
53 coil-100/obj92__5.png
53 coil-100/obj65__75.png
53 coil-100/obj61__15.png
53 coil-100/obj61__280.png
53 coil-100/obj92__265.png
53 coil-100/obj61__5.png
53 coil-100/obj92__80.png
53 coil-100/obj37__200.png
53 coil-100/obj92__305.png
53 coil-100/obj61__30.png
53 coil-100/obj96__160.png
53 coil-100/obj57__90.png
53 coil-100/obj92__45.png
53 coil-100/obj68__45.png
53 coil-100/obj13__45.png
53 coil-100/obj92__350.png
53 coil-100/obj96__0.png
53 coil-100/obj13__60.png
53 coil-100/obj96__200.png
53 coil-100/obj96__155.png
53 coil-100/obj96__170.png
53 coil-100/obj96__15.png
53 coil-100/obj61__240.png
53 coil-100/obj96__240.png
53 coil-100/obj92__0.png
53 coil-100/obj37__40.png
53 coil-100/obj96__335.png
53 coil-100/obj61__270.png
53 coil-100/obj57__100.png
53 coil-100/obj68__225.png
53 coil-100/obj37__150.png
53 coil-100/obj92__285.png
53 coil-100/obj92__300.png
53 coil-100/obj37__160.png
53 coil-100/obj96__145.png
53 coil-100/obj61__295.png
53 coil-100/obj96__225.png
53 coil-100/obj96__310.png
53 coil-100/obj92__225.png
53 coil-100/obj57__95.png
53 coil-100/obj61__290.png
53 coil-100/obj96__60.png
53 coil-100/obj96__25.png
53 coil-100/obj96__300.png
53 coil-100/obj96__340.png
53 coil-100/obj96__115.png
53 coil-100/obj61__20.png
53 coil-100/obj61__255.png
53 coil-100/obj92__25.png
53 coil-100/obj92__210.png
53 coil-100/obj96__175.png
53 coil-100/obj67__235.png
53 coil-100/obj92__10.png
53 coil-100/obj92__20.png
53 coil-100/obj37__225.png
53 coil-100/obj61__285.png
53 coil-100/obj37__220.png
53 coil-100/obj96__205.png
53 coil-100/obj67__240.png
53 coil-100/obj61__10.png
53 coil-100/obj92__340.png
53 coil-100/obj96__190.png
53 coil-100/obj37__205.png
53 coil-100/obj37__215.png
53 coil-100/obj37__25.png
53 coil-100/obj96__40.png
53 coil-100/obj92__345.png
53 coil-100/obj92__215.png
53 coil-100/obj39__265.png
53 coil-100/obj92__70.png
53 coil-100/obj61__230.png
53 coil-100/obj96__235.png
53 coil-100/obj68__25.png
53 coil-100/obj68__90.png
