2 coil-100/obj52__275.png
2 coil-100/obj52__115.png
2 coil-100/obj52__240.png
2 coil-100/obj52__35.png
2 coil-100/obj52__55.png
2 coil-100/obj52__50.png
2 coil-100/obj52__25.png
2 coil-100/obj52__95.png
2 coil-100/obj52__270.png
2 coil-100/obj52__280.png
2 coil-100/obj52__65.png
2 coil-100/obj52__105.png
2 coil-100/obj52__210.png
2 coil-100/obj52__235.png
2 coil-100/obj52__125.png
2 coil-100/obj52__295.png
2 coil-100/obj52__215.png
2 coil-100/obj52__85.png
2 coil-100/obj52__220.png
2 coil-100/obj52__260.png
2 coil-100/obj52__90.png
2 coil-100/obj52__110.png
2 coil-100/obj52__100.png
2 coil-100/obj52__40.png
2 coil-100/obj52__265.png
2 coil-100/obj52__290.png
2 coil-100/obj52__285.png
2 coil-100/obj52__225.png
2 coil-100/obj52__130.png
2 coil-100/obj52__255.png
2 coil-100/obj52__245.png
2 coil-100/obj52__45.png
2 coil-100/obj52__60.png
2 coil-100/obj52__75.png
2 coil-100/obj52__305.png
2 coil-100/obj52__30.png
2 coil-100/obj52__250.png
2 coil-100/obj52__310.png
2 coil-100/obj52__80.png
2 coil-100/obj52__70.png
2 coil-100/obj52__300.png
2 coil-100/obj52__120.png
