72 coil-100/obj51__70.png
72 coil-100/obj12__220.png
72 coil-100/obj12__40.png
72 coil-100/obj51__185.png
72 coil-100/obj77__230.png
72 coil-100/obj12__50.png
72 coil-100/obj51__30.png
72 coil-100/obj51__65.png
72 coil-100/obj77__220.png
72 coil-100/obj51__25.png
72 coil-100/obj12__200.png
72 coil-100/obj12__30.png
72 coil-100/obj12__210.png
72 coil-100/obj12__45.png
72 coil-100/obj51__50.png
72 coil-100/obj51__35.png
72 coil-100/obj12__195.png
72 coil-100/obj12__35.png
72 coil-100/obj12__205.png
72 coil-100/obj12__60.png
72 coil-100/obj77__225.png
72 coil-100/obj12__185.png
72 coil-100/obj51__45.png
72 coil-100/obj51__195.png
72 coil-100/obj12__190.png
72 coil-100/obj51__60.png
72 coil-100/obj12__20.png
72 coil-100/obj51__55.png
72 coil-100/obj51__40.png
72 coil-100/obj51__190.png
72 coil-100/obj12__215.png
72 coil-100/obj12__55.png
