44 coil-100/obj80__140.png
44 coil-100/obj12__175.png
44 coil-100/obj12__150.png
44 coil-100/obj12__120.png
44 coil-100/obj51__350.png
44 coil-100/obj77__170.png
44 coil-100/obj12__345.png
44 coil-100/obj77__335.png
44 coil-100/obj51__355.png
44 coil-100/obj80__135.png
44 coil-100/obj77__320.png
44 coil-100/obj12__135.png
44 coil-100/obj77__330.png
44 coil-100/obj12__0.png
44 coil-100/obj77__345.png
44 coil-100/obj12__165.png
44 coil-100/obj12__340.png
44 coil-100/obj12__155.png
44 coil-100/obj77__315.png
44 coil-100/obj12__130.png
44 coil-100/obj77__355.png
44 coil-100/obj51__0.png
44 coil-100/obj12__115.png
44 coil-100/obj77__325.png
44 coil-100/obj12__350.png
44 coil-100/obj77__340.png
44 coil-100/obj51__345.png
44 coil-100/obj77__165.png
44 coil-100/obj12__355.png
44 coil-100/obj12__140.png
44 coil-100/obj12__335.png
44 coil-100/obj12__145.png
44 coil-100/obj12__125.png
44 coil-100/obj12__160.png
44 coil-100/obj12__170.png
44 coil-100/obj77__350.png
