89 coil-100/obj45__250.png
89 coil-100/obj45__240.png
89 coil-100/obj66__210.png
89 coil-100/obj60__20.png
89 coil-100/obj97__0.png
89 coil-100/obj45__265.png
89 coil-100/obj66__45.png
89 coil-100/obj45__100.png
89 coil-100/obj66__200.png
89 coil-100/obj97__350.png
89 coil-100/obj97__195.png
89 coil-100/obj97__20.png
89 coil-100/obj97__25.png
89 coil-100/obj97__240.png
89 coil-100/obj97__305.png
89 coil-100/obj97__150.png
89 coil-100/obj66__50.png
89 coil-100/obj66__110.png
89 coil-100/obj60__25.png
89 coil-100/obj97__160.png
89 coil-100/obj97__190.png
89 coil-100/obj45__285.png
89 coil-100/obj66__235.png
89 coil-100/obj66__20.png
89 coil-100/obj66__215.png
89 coil-100/obj97__205.png
89 coil-100/obj97__220.png
89 coil-100/obj45__270.png
89 coil-100/obj66__30.png
89 coil-100/obj66__60.png
89 coil-100/obj45__95.png
89 coil-100/obj66__205.png
89 coil-100/obj97__5.png
89 coil-100/obj97__10.png
89 coil-100/obj97__300.png
89 coil-100/obj97__295.png
89 coil-100/obj97__335.png
89 coil-100/obj66__240.png
89 coil-100/obj97__235.png
89 coil-100/obj45__125.png
89 coil-100/obj97__325.png
89 coil-100/obj45__260.png
89 coil-100/obj97__125.png
89 coil-100/obj60__10.png
89 coil-100/obj66__35.png
89 coil-100/obj45__70.png
89 coil-100/obj97__225.png
89 coil-100/obj66__25.png
89 coil-100/obj60__0.png
89 coil-100/obj45__275.png
89 coil-100/obj97__210.png
89 coil-100/obj97__185.png
89 coil-100/obj45__245.png
89 coil-100/obj97__165.png
89 coil-100/obj45__110.png
89 coil-100/obj66__65.png
89 coil-100/obj66__225.png
89 coil-100/obj97__135.png
89 coil-100/obj97__30.png
89 coil-100/obj66__40.png
89 coil-100/obj45__255.png
89 coil-100/obj97__340.png
89 coil-100/obj97__345.png
89 coil-100/obj97__215.png
89 coil-100/obj97__245.png
89 coil-100/obj97__155.png
89 coil-100/obj97__15.png
89 coil-100/obj45__65.png
89 coil-100/obj45__115.png
89 coil-100/obj97__140.png
89 coil-100/obj97__145.png
89 coil-100/obj97__200.png
89 coil-100/obj97__320.png
89 coil-100/obj97__35.png
89 coil-100/obj66__230.png
89 coil-100/obj97__170.png
89 coil-100/obj97__330.png
89 coil-100/obj97__45.png
89 coil-100/obj97__355.png
89 coil-100/obj45__120.png
89 coil-100/obj97__120.png
89 coil-100/obj45__80.png
89 coil-100/obj45__75.png
89 coil-100/obj66__245.png
89 coil-100/obj97__250.png
89 coil-100/obj45__105.png
89 coil-100/obj45__90.png
89 coil-100/obj97__40.png
89 coil-100/obj97__230.png
89 coil-100/obj97__290.png
89 coil-100/obj97__310.png
89 coil-100/obj66__115.png
89 coil-100/obj66__290.png
89 coil-100/obj66__55.png
89 coil-100/obj66__120.png
89 coil-100/obj60__15.png
89 coil-100/obj45__85.png
89 coil-100/obj66__295.png
89 coil-100/obj97__130.png
89 coil-100/obj45__280.png
89 coil-100/obj97__315.png
89 coil-100/obj66__220.png
