71 coil-100/obj98__50.png
71 coil-100/obj78__325.png
71 coil-100/obj78__165.png
71 coil-100/obj8__230.png
71 coil-100/obj91__315.png
71 coil-100/obj8__320.png
71 coil-100/obj27__320.png
71 coil-100/obj8__245.png
71 coil-100/obj98__305.png
71 coil-100/obj21__55.png
71 coil-100/obj98__120.png
71 coil-100/obj8__300.png
71 coil-100/obj27__245.png
71 coil-100/obj27__115.png
71 coil-100/obj8__135.png
71 coil-100/obj91__235.png
71 coil-100/obj78__340.png
71 coil-100/obj78__155.png
71 coil-100/obj6__315.png
71 coil-100/obj6__115.png
71 coil-100/obj6__120.png
71 coil-100/obj78__320.png
71 coil-100/obj8__310.png
71 coil-100/obj27__110.png
71 coil-100/obj98__315.png
71 coil-100/obj8__125.png
71 coil-100/obj98__240.png
71 coil-100/obj78__225.png
71 coil-100/obj8__295.png
71 coil-100/obj27__65.png
71 coil-100/obj78__40.png
71 coil-100/obj6__65.png
71 coil-100/obj78__310.png
71 coil-100/obj78__45.png
71 coil-100/obj98__235.png
71 coil-100/obj78__30.png
71 coil-100/obj8__305.png
71 coil-100/obj78__35.png
71 coil-100/obj27__120.png
71 coil-100/obj98__310.png
71 coil-100/obj6__130.png
71 coil-100/obj8__325.png
71 coil-100/obj98__300.png
71 coil-100/obj8__60.png
71 coil-100/obj78__140.png
71 coil-100/obj78__160.png
71 coil-100/obj78__330.png
71 coil-100/obj6__70.png
71 coil-100/obj8__315.png
71 coil-100/obj78__230.png
71 coil-100/obj27__240.png
71 coil-100/obj27__310.png
71 coil-100/obj78__335.png
71 coil-100/obj8__115.png
71 coil-100/obj27__235.png
71 coil-100/obj27__325.png
71 coil-100/obj6__125.png
71 coil-100/obj8__240.png
71 coil-100/obj98__55.png
71 coil-100/obj8__235.png
71 coil-100/obj8__45.png
71 coil-100/obj8__55.png
71 coil-100/obj98__125.png
71 coil-100/obj78__150.png
71 coil-100/obj6__235.png
71 coil-100/obj8__120.png
71 coil-100/obj6__240.png
71 coil-100/obj98__60.png
71 coil-100/obj78__315.png
71 coil-100/obj78__215.png
71 coil-100/obj78__220.png
71 coil-100/obj78__145.png
71 coil-100/obj27__315.png
