65 coil-100/obj79__355.png
65 coil-100/obj15__245.png
65 coil-100/obj15__105.png
65 coil-100/obj15__110.png
65 coil-100/obj15__70.png
65 coil-100/obj15__255.png
65 coil-100/obj15__310.png
65 coil-100/obj15__290.png
65 coil-100/obj15__85.png
65 coil-100/obj15__75.png
65 coil-100/obj15__100.png
65 coil-100/obj15__300.png
65 coil-100/obj15__295.png
65 coil-100/obj15__80.png
65 coil-100/obj15__305.png
65 coil-100/obj15__250.png
