92 coil-100/obj18__330.png
92 coil-100/obj18__280.png
92 coil-100/obj18__340.png
92 coil-100/obj18__350.png
92 coil-100/obj18__250.png
92 coil-100/obj18__220.png
92 coil-100/obj18__205.png
92 coil-100/obj18__230.png
92 coil-100/obj18__20.png
92 coil-100/obj18__25.png
92 coil-100/obj18__265.png
92 coil-100/obj18__60.png
92 coil-100/obj18__105.png
92 coil-100/obj18__40.png
92 coil-100/obj18__70.png
92 coil-100/obj18__120.png
92 coil-100/obj18__115.png
92 coil-100/obj18__190.png
92 coil-100/obj18__65.png
92 coil-100/obj18__295.png
92 coil-100/obj18__255.png
92 coil-100/obj18__35.png
92 coil-100/obj18__30.png
92 coil-100/obj18__245.png
92 coil-100/obj18__185.png
92 coil-100/obj18__235.png
92 coil-100/obj18__335.png
92 coil-100/obj18__5.png
92 coil-100/obj18__225.png
92 coil-100/obj18__45.png
92 coil-100/obj18__325.png
92 coil-100/obj18__135.png
92 coil-100/obj18__155.png
92 coil-100/obj18__270.png
92 coil-100/obj18__215.png
92 coil-100/obj18__180.png
92 coil-100/obj18__75.png
92 coil-100/obj18__130.png
92 coil-100/obj18__145.png
92 coil-100/obj18__90.png
92 coil-100/obj31__290.png
92 coil-100/obj18__85.png
92 coil-100/obj18__100.png
92 coil-100/obj18__140.png
92 coil-100/obj18__15.png
92 coil-100/obj18__210.png
92 coil-100/obj18__160.png
92 coil-100/obj18__320.png
92 coil-100/obj18__310.png
92 coil-100/obj31__280.png
92 coil-100/obj18__165.png
92 coil-100/obj18__170.png
92 coil-100/obj18__55.png
92 coil-100/obj18__305.png
92 coil-100/obj18__195.png
92 coil-100/obj18__80.png
92 coil-100/obj18__150.png
92 coil-100/obj18__50.png
92 coil-100/obj18__125.png
92 coil-100/obj18__285.png
92 coil-100/obj18__240.png
92 coil-100/obj18__110.png
92 coil-100/obj18__315.png
92 coil-100/obj18__95.png
92 coil-100/obj18__200.png
92 coil-100/obj18__355.png
92 coil-100/obj18__175.png
92 coil-100/obj18__300.png
92 coil-100/obj18__260.png
92 coil-100/obj18__290.png
92 coil-100/obj18__345.png
92 coil-100/obj18__275.png
92 coil-100/obj18__10.png
92 coil-100/obj18__0.png
