56 coil-100/obj59__140.png
56 coil-100/obj82__190.png
56 coil-100/obj82__350.png
56 coil-100/obj82__130.png
56 coil-100/obj100__95.png
56 coil-100/obj82__205.png
56 coil-100/obj82__275.png
56 coil-100/obj82__185.png
56 coil-100/obj82__15.png
56 coil-100/obj82__230.png
56 coil-100/obj82__170.png
56 coil-100/obj82__125.png
56 coil-100/obj82__330.png
56 coil-100/obj82__280.png
56 coil-100/obj82__310.png
56 coil-100/obj82__135.png
56 coil-100/obj82__320.png
56 coil-100/obj82__180.png
56 coil-100/obj82__120.png
56 coil-100/obj100__100.png
56 coil-100/obj82__50.png
56 coil-100/obj82__115.png
56 coil-100/obj82__325.png
56 coil-100/obj82__305.png
56 coil-100/obj82__155.png
56 coil-100/obj100__85.png
56 coil-100/obj82__315.png
56 coil-100/obj82__110.png
56 coil-100/obj82__10.png
56 coil-100/obj82__140.png
56 coil-100/obj82__55.png
56 coil-100/obj82__300.png
56 coil-100/obj100__90.png
56 coil-100/obj82__105.png
56 coil-100/obj82__0.png
56 coil-100/obj82__175.png
56 coil-100/obj82__85.png
56 coil-100/obj82__40.png
56 coil-100/obj82__200.png
56 coil-100/obj82__220.png
56 coil-100/obj82__240.png
56 coil-100/obj82__195.png
56 coil-100/obj82__75.png
56 coil-100/obj82__100.png
56 coil-100/obj82__295.png
56 coil-100/obj82__250.png
56 coil-100/obj82__265.png
56 coil-100/obj82__65.png
56 coil-100/obj82__245.png
56 coil-100/obj82__25.png
56 coil-100/obj82__235.png
56 coil-100/obj82__210.png
56 coil-100/obj82__95.png
56 coil-100/obj82__355.png
56 coil-100/obj82__5.png
56 coil-100/obj82__145.png
56 coil-100/obj82__160.png
56 coil-100/obj82__345.png
56 coil-100/obj82__80.png
56 coil-100/obj82__215.png
56 coil-100/obj82__340.png
56 coil-100/obj82__335.png
56 coil-100/obj82__90.png
56 coil-100/obj82__35.png
56 coil-100/obj82__165.png
56 coil-100/obj82__255.png
56 coil-100/obj82__225.png
56 coil-100/obj82__285.png
56 coil-100/obj82__60.png
56 coil-100/obj82__260.png
56 coil-100/obj82__290.png
56 coil-100/obj82__20.png
56 coil-100/obj82__70.png
56 coil-100/obj82__30.png
56 coil-100/obj82__270.png
56 coil-100/obj82__150.png
