68 coil-100/obj71__25.png
68 coil-100/obj36__160.png
68 coil-100/obj36__345.png
68 coil-100/obj36__135.png
68 coil-100/obj36__320.png
68 coil-100/obj36__330.png
68 coil-100/obj36__145.png
68 coil-100/obj36__315.png
68 coil-100/obj36__165.png
68 coil-100/obj36__140.png
68 coil-100/obj36__325.png
68 coil-100/obj36__130.png
68 coil-100/obj36__310.png
68 coil-100/obj36__295.png
68 coil-100/obj36__155.png
68 coil-100/obj36__335.png
68 coil-100/obj36__300.png
68 coil-100/obj36__340.png
68 coil-100/obj36__150.png
68 coil-100/obj36__305.png
