59 coil-100/obj48__120.png
59 coil-100/obj69__275.png
59 coil-100/obj48__265.png
59 coil-100/obj48__85.png
59 coil-100/obj48__155.png
59 coil-100/obj44__90.png
59 coil-100/obj48__240.png
59 coil-100/obj48__20.png
59 coil-100/obj46__90.png
59 coil-100/obj48__200.png
59 coil-100/obj37__270.png
59 coil-100/obj48__245.png
59 coil-100/obj48__205.png
59 coil-100/obj69__270.png
59 coil-100/obj37__285.png
59 coil-100/obj48__280.png
59 coil-100/obj48__210.png
59 coil-100/obj48__130.png
59 coil-100/obj69__260.png
59 coil-100/obj48__65.png
59 coil-100/obj48__80.png
59 coil-100/obj69__285.png
59 coil-100/obj48__335.png
59 coil-100/obj48__195.png
59 coil-100/obj44__100.png
59 coil-100/obj48__250.png
59 coil-100/obj57__320.png
59 coil-100/obj48__290.png
59 coil-100/obj44__85.png
59 coil-100/obj48__255.png
59 coil-100/obj48__35.png
59 coil-100/obj48__25.png
59 coil-100/obj48__145.png
59 coil-100/obj37__290.png
59 coil-100/obj48__60.png
59 coil-100/obj48__260.png
59 coil-100/obj48__325.png
59 coil-100/obj48__320.png
59 coil-100/obj67__80.png
59 coil-100/obj48__175.png
59 coil-100/obj48__150.png
59 coil-100/obj48__160.png
59 coil-100/obj48__15.png
59 coil-100/obj48__95.png
59 coil-100/obj48__310.png
59 coil-100/obj48__115.png
59 coil-100/obj37__265.png
59 coil-100/obj48__215.png
59 coil-100/obj44__95.png
59 coil-100/obj48__230.png
59 coil-100/obj48__45.png
59 coil-100/obj48__275.png
59 coil-100/obj69__255.png
59 coil-100/obj48__190.png
59 coil-100/obj48__110.png
59 coil-100/obj48__105.png
59 coil-100/obj48__55.png
59 coil-100/obj48__135.png
59 coil-100/obj48__70.png
59 coil-100/obj48__125.png
59 coil-100/obj48__330.png
59 coil-100/obj37__260.png
59 coil-100/obj37__295.png
59 coil-100/obj48__140.png
59 coil-100/obj48__180.png
59 coil-100/obj48__235.png
59 coil-100/obj48__285.png
59 coil-100/obj67__260.png
59 coil-100/obj48__315.png
59 coil-100/obj48__50.png
59 coil-100/obj37__275.png
59 coil-100/obj67__255.png
59 coil-100/obj48__30.png
59 coil-100/obj48__220.png
59 coil-100/obj48__295.png
59 coil-100/obj48__270.png
59 coil-100/obj37__280.png
59 coil-100/obj48__100.png
59 coil-100/obj48__90.png
59 coil-100/obj48__40.png
